// Jest Snapshot v1, https://goo.gl/fbAQLP

exports[`<ChallengeWinnerAvatar /> should render a challenge winner avatar in first place 1`] = `
<div
  class="css-13mwvig-ChallengeWinnerAvatar"
  data-testid="winner-avatar"
>
  <div
    class="css-1h6im5w-Avatar"
  />
  <img
    alt="ranking 1"
    class="css-11bgzpn-ChallengeWinnerAvatar"
    src="ribbon-1.png"
  />
  <div
    class="css-13i3qym-ChallengeWinnerAvatar"
  >
    bob
  </div>
  <div
    class="css-53ixtp-ChallengeWinnerAvatar"
  >
    1
    st
     Place
  </div>
</div>
`;

exports[`<ChallengeWinnerAvatar /> should render a challenge winner avatar in second place 1`] = `
<div
  class="css-13mwvig-ChallengeWinnerAvatar"
  data-testid="winner-avatar"
>
  <div
    class="css-1y3gfa9-Avatar"
  />
  <img
    alt="ranking 2"
    class="css-6lbg1m-ChallengeWinnerAvatar"
    src="ribbon-2.png"
  />
  <div
    class="css-13i3qym-ChallengeWinnerAvatar"
  >
    bob
  </div>
  <div
    class="css-1nlgzv1-ChallengeWinnerAvatar"
  >
    2
    nd
     Place
  </div>
</div>
`;

exports[`<ChallengeWinnerAvatar /> should render a challenge winner avatar in third place 1`] = `
<div
  class="css-13mwvig-ChallengeWinnerAvatar"
  data-testid="winner-avatar"
>
  <div
    class="css-1y3gfa9-Avatar"
  />
  <img
    alt="ranking 3"
    class="css-6lbg1m-ChallengeWinnerAvatar"
    src="ribbon-3.png"
  />
  <div
    class="css-13i3qym-ChallengeWinnerAvatar"
  >
    bob
  </div>
  <div
    class="css-1nlgzv1-ChallengeWinnerAvatar"
  >
    3
    rd
     Place
  </div>
</div>
`;
